<TICKER>,<DTYYYYMMDD>,<OPEN>,<HIGH>,<LOW>,<CLOSE>,<VOL>,<OPENINT>,<OPENINT>,<OPENINT>
قنقش,20181007,0.00,0.00,0.00,4298.00,0,0.00,0,4298.00
قنقش,20181008,0.00,0.00,0.00,4298.00,0,0.00,0,4298.00
قنقش,20181009,0.00,0.00,0.00,4298.00,0,0.00,0,4298.00
قنقش,20181010,0.00,0.00,0.00,4298.00,0,0.00,0,4298.00
قنقش,20181013,0.00,0.00,0.00,4298.00,0,0.00,0,4298.00
قنقش,20181014,0.00,0.00,0.00,4298.00,0,0.00,0,4298.00
قنقش,20181015,0.00,0.00,0.00,4298.00,0,0.00,0,4298.00
قنقش,20181016,0.00,0.00,0.00,4298.00,0,0.00,0,4298.00
قنقش,20181017,0.00,0.00,0.00,4298.00,0,0.00,0,4298.00
قنقش,20181020,0.00,0.00,0.00,4298.00,0,0.00,0,4298.00
قنقش,20181021,0.00,0.00,0.00,4298.00,0,0.00,0,4298.00
قنقش,20181022,0.00,0.00,0.00,4298.00,0,0.00,0,4298.00
قنقش,20181023,0.00,0.00,0.00,4298.00,0,0.00,0,4298.00
قنقش,20181024,0.00,0.00,0.00,4298.00,0,0.00,0,4298.00
قنقش,20181027,0.00,0.00,0.00,4298.00,0,0.00,0,4298.00
قنقش,20181028,0.00,0.00,0.00,4298.00,0,0.00,0,4298.00
قنقش,20181029,0.00,0.00,0.00,4298.00,0,0.00,0,4298.00
قنقش,20181031,0.00,0.00,0.00,4298.00,0,0.00,0,4298.00
قنقش,20181103,0.00,0.00,0.00,4298.00,0,0.00,0,4298.00
قنقش,20181104,0.00,0.00,0.00,4298.00,0,0.00,0,4298.00
قنقش,20181105,7778.00,0.00,0.00,4298.00,0,0.00,0,4298.00
قنقش,20181106,0.00,0.00,0.00,4298.00,0,0.00,0,4298.00
قنقش,20181110,6510.00,0.00,0.00,4298.00,0,0.00,0,4298.00
قنقش,20181111,0.00,0.00,0.00,4298.00,0,0.00,0,4298.00
قنقش,20181112,6746.00,0.00,0.00,4298.00,0,0.00,0,4298.00
قنقش,20181113,0.00,0.00,0.00,4298.00,0,0.00,0,4298.00
قنقش,20181114,0.00,0.00,0.00,4298.00,0,0.00,0,4298.00
قنقش,20181117,4311.00,0.00,0.00,4298.00,0,0.00,0,4298.00
قنقش,20181118,0.00,0.00,0.00,4298.00,0,0.00,0,4298.00
قنقش,20181119,5333.00,5333.00,5333.00,4359.00,14742,78619086.00,5,4298.00
قنقش,20181120,0.00,0.00,0.00,4359.00,0,0.00,0,4359.00
قنقش,20181121,6500.00,6500.00,6500.00,6500.00,662785,4308102500.00,165,4359.00
قنقش,20181124,6600.00,6600.00,6388.00,6591.00,114443,754263800.00,29,6500.00
قنقش,20181126,5500.00,5500.00,5500.00,5500.00,229334,1261337000.00,38,6591.00
قنقش,20181127,0.00,0.00,0.00,5500.00,0,0.00,0,5500.00
قنقش,20181128,5500.00,5500.00,5500.00,5500.00,172853,950691500.00,36,5500.00
قنقش,20181201,5500.00,5500.00,5500.00,5500.00,56000,308000000.00,18,5500.00
قنقش,20181202,0.00,0.00,0.00,5500.00,0,0.00,0,5500.00
قنقش,20181203,5500.00,5500.00,5500.00,5500.00,49019,269604500.00,16,5500.00
قنقش,20181204,0.00,0.00,0.00,5500.00,0,0.00,0,5500.00
قنقش,20181205,5500.00,5795.00,5500.00,5529.00,139000,768473060.00,53,5500.00
قنقش,20181208,5529.00,5529.00,5529.00,5529.00,49400,273132600.00,20,5529.00
قنقش,20181209,0.00,0.00,0.00,5529.00,0,0.00,0,5529.00
قنقش,20181210,0.00,0.00,0.00,5529.00,0,0.00,0,5529.00
قنقش,20181211,0.00,0.00,0.00,5529.00,0,0.00,0,5529.00
قنقش,20181212,0.00,0.00,0.00,5529.00,0,0.00,0,5529.00
قنقش,20181215,0.00,0.00,0.00,5529.00,0,0.00,0,5529.00
قنقش,20181216,0.00,0.00,0.00,5529.00,0,0.00,0,5529.00
قنقش,20181217,0.00,0.00,0.00,5529.00,0,0.00,0,5529.00
قنقش,20181218,0.00,0.00,0.00,5529.00,0,0.00,0,5529.00
قنقش,20181219,0.00,0.00,0.00,5529.00,0,0.00,0,5529.00
قنقش,20181222,5529.00,5529.00,5300.00,5509.00,19152,105502108.00,8,5529.00
قنقش,20181223,0.00,0.00,0.00,5509.00,0,0.00,0,5509.00
قنقش,20181224,4660.00,5100.00,4660.00,4674.00,138095,645502700.00,20,5509.00
قنقش,20181225,0.00,0.00,0.00,4674.00,0,0.00,0,4674.00
قنقش,20181226,5389.00,0.00,0.00,4674.00,0,0.00,0,4674.00
قنقش,20181229,5235.00,0.00,0.00,4674.00,0,0.00,0,4674.00
قنقش,20181230,0.00,0.00,0.00,4674.00,0,0.00,0,4674.00
قنقش,20181231,5000.00,5098.00,5000.00,5008.00,52705,263948164.00,29,4674.00
قنقش,20190101,0.00,0.00,0.00,5008.00,0,0.00,0,5008.00
قنقش,20190102,5008.00,5008.00,5000.00,5005.00,98242,491674896.00,26,5008.00
قنقش,20190105,5050.00,5050.00,5050.00,5050.00,74000,373700000.00,13,5005.00
قنقش,20190106,0.00,0.00,0.00,5050.00,0,0.00,0,5050.00
قنقش,20190107,4800.00,4800.00,4800.00,4800.00,18300,87840000.00,1,5050.00
قنقش,20190108,0.00,0.00,0.00,4800.00,0,0.00,0,4800.00
قنقش,20190109,4800.00,4800.00,4630.00,4747.00,13463,63906190.00,12,4800.00
قنقش,20190112,4888.00,4888.00,4888.00,4888.00,68000,332384000.00,14,4747.00
قنقش,20190113,0.00,0.00,0.00,4888.00,0,0.00,0,4888.00
قنقش,20190114,4701.00,4701.00,4701.00,4701.00,77910,366254910.00,40,4888.00
قنقش,20190115,0.00,0.00,0.00,4701.00,0,0.00,0,4701.00
قنقش,20190116,4701.00,4712.00,4701.00,4701.00,44380,208641380.00,7,4701.00
قنقش,20190119,4701.00,4701.00,4701.00,4701.00,30008,141067608.00,3,4701.00
قنقش,20190120,0.00,0.00,0.00,4701.00,0,0.00,0,4701.00
قنقش,20190121,4701.00,4988.00,4701.00,4976.00,53159,264537459.00,9,4701.00
قنقش,20190122,0.00,0.00,0.00,4976.00,0,0.00,0,4976.00
قنقش,20190123,4976.00,4976.00,4976.00,4976.00,5998,29846048.00,5,4976.00
قنقش,20190126,5800.00,5800.00,5300.00,5796.00,72306,419097300.00,33,4976.00
قنقش,20190127,0.00,0.00,0.00,5796.00,0,0.00,0,5796.00
قنقش,20190128,5014.00,0.00,0.00,5796.00,0,0.00,0,5796.00
قنقش,20190129,0.00,0.00,0.00,5796.00,0,0.00,0,5796.00
قنقش,20190130,5795.00,5795.00,5795.00,5795.00,74625,432451875.00,9,5796.00
قنقش,20190202,5800.00,5800.00,5800.00,5800.00,145407,843360600.00,50,5795.00
قنقش,20190203,0.00,0.00,0.00,5800.00,0,0.00,0,5800.00
قنقش,20190204,5800.00,5800.00,5800.00,5800.00,140108,812626400.00,19,5800.00
قنقش,20190205,0.00,0.00,0.00,5800.00,0,0.00,0,5800.00
قنقش,20190206,5800.00,5800.00,5800.00,5800.00,105000,609000000.00,13,5800.00
قنقش,20190210,0.00,0.00,0.00,5800.00,0,0.00,0,5800.00
قنقش,20190212,0.00,0.00,0.00,5800.00,0,0.00,0,5800.00
قنقش,20190213,5000.00,0.00,0.00,5800.00,0,0.00,0,5800.00
قنقش,20190216,5800.00,5800.00,5800.00,5800.00,37200,215760000.00,8,5800.00
قنقش,20190217,0.00,0.00,0.00,5800.00,0,0.00,0,5800.00
قنقش,20190218,5800.00,5800.00,5800.00,5800.00,99025,574345000.00,23,5800.00
قنقش,20190219,0.00,0.00,0.00,5800.00,0,0.00,0,5800.00
قنقش,20190220,5800.00,5800.00,5800.00,5800.00,10427,60476600.00,3,5800.00
قنقش,20190223,5800.00,5800.00,4701.00,5005.00,19000,95088750.00,13,5800.00
قنقش,20190224,0.00,0.00,0.00,5005.00,0,0.00,0,5005.00
قنقش,20190225,5005.00,5300.00,5005.00,5184.00,85027,440782135.00,11,5005.00
قنقش,20190226,0.00,0.00,0.00,5184.00,0,0.00,0,5184.00
قنقش,20190227,5799.00,5799.00,5799.00,5799.00,849974,4928999226.00,126,5184.00
قنقش,20190302,5969.00,6450.00,5969.00,6124.00,222856,1364792605.00,32,5799.00
قنقش,20190303,0.00,0.00,0.00,6124.00,0,0.00,0,6124.00
قنقش,20190304,7151.00,7500.00,7151.00,7177.00,5719227,41044564622.00,547,6124.00
قنقش,20190305,0.00,0.00,0.00,7177.00,0,0.00,0,7177.00
قنقش,20190306,8400.00,8400.00,7780.00,8329.00,1580823,13166864940.00,235,7177.00
قنقش,20190309,6802.00,0.00,0.00,8329.00,0,0.00,0,8329.00
قنقش,20190310,0.00,0.00,0.00,8329.00,0,0.00,0,8329.00
قنقش,20190311,7131.00,7131.00,7000.00,7123.00,1216545,8665587955.00,238,8329.00
قنقش,20190312,0.00,0.00,0.00,7123.00,0,0.00,0,7123.00
قنقش,20190313,7299.00,7299.00,6732.00,7205.00,79517,572927193.00,22,7123.00
قنقش,20190316,6610.00,7000.00,6610.00,6691.00,316873,2120123500.00,64,7205.00
قنقش,20190317,0.00,0.00,0.00,6691.00,0,0.00,0,6691.00
قنقش,20190318,6751.00,6751.00,6751.00,6751.00,50000,337550000.00,9,6691.00
قنقش,20190319,0.00,0.00,0.00,6751.00,0,0.00,0,6751.00
قنقش,20190325,6751.00,7201.00,6751.00,6791.00,402186,2731160586.00,69,6751.00
قنقش,20190326,0.00,0.00,0.00,6791.00,0,0.00,0,6791.00
قنقش,20190327,7000.00,7000.00,7000.00,7000.00,605007,4235049000.00,80,6791.00
قنقش,20190330,7000.00,7060.00,7000.00,7036.00,365610,2572499820.00,62,7000.00
قنقش,20190331,0.00,0.00,0.00,7036.00,0,0.00,0,7036.00
قنقش,20190406,7100.00,7100.00,7100.00,7100.00,115418,819467800.00,17,7036.00
قنقش,20190407,0.00,0.00,0.00,7100.00,0,0.00,0,7100.00
قنقش,20190408,7476.00,7998.00,7476.00,7565.00,482658,3651324858.00,110,7100.00
قنقش,20190409,0.00,0.00,0.00,7565.00,0,0.00,0,7565.00
قنقش,20190410,8101.00,9511.00,8101.00,8826.00,233931,2064761481.00,44,7565.00
قنقش,20190413,10450.00,10450.00,9550.00,10154.00,552298,5608024600.00,129,8826.00
قنقش,20190414,0.00,0.00,0.00,10154.00,0,0.00,0,10154.00
قنقش,20190415,9000.00,9004.00,9000.00,9000.00,415342,3738174000.00,120,10154.00
قنقش,20190416,0.00,0.00,0.00,9000.00,0,0.00,0,9000.00
قنقش,20190417,8990.00,8990.00,8990.00,8990.00,132163,1188145370.00,32,9000.00
قنقش,20190420,8990.00,9210.00,8990.00,9053.00,266119,2409233870.00,86,8990.00
قنقش,20190422,9200.00,9200.00,9200.00,9200.00,27061,248961200.00,9,9053.00
قنقش,20190423,0.00,0.00,0.00,9200.00,0,0.00,0,9200.00
قنقش,20190424,8950.00,8950.00,8950.00,8950.00,65000,581750000.00,7,9200.00
قنقش,20190427,8900.00,8950.00,8900.00,8905.00,605292,5389853800.00,111,8950.00
قنقش,20190428,0.00,0.00,0.00,8905.00,0,0.00,0,8905.00
قنقش,20190429,10100.00,10100.00,10100.00,10100.00,661351,6679645100.00,149,8905.00
قنقش,20190430,0.00,0.00,0.00,10100.00,0,0.00,0,10100.00
قنقش,20190501,10100.00,10500.00,10100.00,10331.00,181278,1872742200.00,64,10100.00
قنقش,20190504,10510.00,10510.00,10510.00,10510.00,823260,8652462600.00,114,10331.00
قنقش,20190505,0.00,0.00,0.00,10510.00,0,0.00,0,10510.00
قنقش,20190506,11499.00,11499.00,10500.00,10797.00,127042,1371695208.00,30,10510.00
قنقش,20190507,0.00,0.00,0.00,10797.00,0,0.00,0,10797.00
قنقش,20190508,10499.00,10499.00,10498.00,10499.00,244461,2566505022.00,57,10797.00
قنقش,20190511,10999.00,10999.00,10400.00,10902.00,142278,1551084812.00,62,10499.00
قنقش,20190512,0.00,0.00,0.00,10902.00,0,0.00,0,10902.00
قنقش,20190513,10999.00,11485.00,10999.00,11154.00,485175,5411821827.00,89,10902.00
قنقش,20190514,0.00,0.00,0.00,11154.00,0,0.00,0,11154.00
قنقش,20190515,12201.00,12201.00,11100.00,11990.00,261339,3133547139.00,63,11154.00
قنقش,20190518,11990.00,11990.00,10500.00,11327.00,150105,1700301450.00,39,11990.00
قنقش,20190519,0.00,0.00,0.00,11327.00,0,0.00,0,11327.00
قنقش,20190520,8011.00,9000.00,8011.00,8500.00,298720,2539196384.00,51,11327.00
قنقش,20190521,0.00,0.00,0.00,8500.00,0,0.00,0,8500.00
قنقش,20190522,9000.00,9000.00,8900.00,8974.00,463303,4157815900.00,138,8500.00
قنقش,20190525,9000.00,9000.00,9000.00,9000.00,407847,3670623000.00,51,8974.00
قنقش,20190526,0.00,0.00,0.00,9000.00,0,0.00,0,9000.00
قنقش,20190528,0.00,0.00,0.00,9000.00,0,0.00,0,9000.00
قنقش,20190529,9900.00,9900.00,9000.00,9512.00,98959,941291100.00,20,9000.00
قنقش,20190601,8800.00,8800.00,8800.00,8800.00,61992,545529600.00,11,9512.00
قنقش,20190602,0.00,0.00,0.00,8800.00,0,0.00,0,8800.00
قنقش,20190603,8500.00,8500.00,7970.00,8217.00,255811,2101873070.00,41,8800.00
قنقش,20190608,7787.00,7800.00,7787.00,7791.00,472667,3682319940.00,95,8217.00
قنقش,20190609,0.00,0.00,0.00,7791.00,0,0.00,0,7791.00
قنقش,20190610,8250.00,8250.00,7797.00,8125.00,419076,3405160596.00,76,7791.00
قنقش,20190611,0.00,0.00,0.00,8125.00,0,0.00,0,8125.00
قنقش,20190612,8010.00,8010.00,8010.00,8010.00,13696,109704960.00,4,8125.00
قنقش,20190615,7899.00,8487.00,7899.00,7942.00,83802,665518806.00,35,8010.00
قنقش,20190616,0.00,0.00,0.00,7942.00,0,0.00,0,7942.00
قنقش,20190617,8000.00,8000.00,7888.00,7997.00,249492,1995277104.00,62,7942.00
قنقش,20190618,0.00,0.00,0.00,7997.00,0,0.00,0,7997.00
قنقش,20190619,7997.00,7997.00,7997.00,7997.00,192329,1538055013.00,24,7997.00
قنقش,20190622,7997.00,7997.00,7900.00,7994.00,107212,857102764.00,27,7997.00
قنقش,20190623,0.00,0.00,0.00,7994.00,0,0.00,0,7994.00
قنقش,20190624,8699.00,8699.00,8400.00,8691.00,92037,799912263.00,49,7994.00
قنقش,20190625,0.00,0.00,0.00,8691.00,0,0.00,0,8691.00
قنقش,20190626,8385.00,8385.00,8300.00,8379.00,573182,4802958785.00,132,8691.00
قنقش,20190630,0.00,0.00,0.00,8379.00,0,0.00,0,8379.00
قنقش,20190701,8602.00,8998.00,8602.00,8860.00,631084,5591358784.00,108,8379.00
قنقش,20190702,0.00,0.00,0.00,8860.00,0,0.00,0,8860.00
قنقش,20190703,9554.00,10200.00,9554.00,9608.00,526957,5062938878.00,106,8860.00
قنقش,20190706,11990.00,13000.00,11990.00,12172.00,475872,5792226930.00,199,9608.00
قنقش,20190707,0.00,0.00,0.00,12172.00,0,0.00,0,12172.00
قنقش,20190708,16450.00,16450.00,15999.00,16355.00,715830,11707307912.00,250,12172.00
قنقش,20190709,0.00,0.00,0.00,16355.00,0,0.00,0,16355.00
قنقش,20190710,15900.00,15900.00,15000.00,15853.00,557644,8840419800.00,118,16355.00
قنقش,20190713,0.00,0.00,0.00,15853.00,0,0.00,0,15853.00
قنقش,20190714,0.00,0.00,0.00,15853.00,0,0.00,0,15853.00
قنقش,20190715,0.00,0.00,0.00,15853.00,0,0.00,0,15853.00
قنقش,20190716,0.00,0.00,0.00,15853.00,0,0.00,0,15853.00
قنقش,20190717,0.00,0.00,0.00,15853.00,0,0.00,0,15853.00
قنقش,20190720,0.00,0.00,0.00,15853.00,0,0.00,0,15853.00
قنقش,20190721,0.00,0.00,0.00,15853.00,0,0.00,0,15853.00
قنقش,20190722,0.00,0.00,0.00,15853.00,0,0.00,0,15853.00
قنقش,20190723,0.00,0.00,0.00,15853.00,0,0.00,0,15853.00
قنقش,20190724,0.00,0.00,0.00,15853.00,0,0.00,0,15853.00
قنقش,20190727,0.00,0.00,0.00,15853.00,0,0.00,0,15853.00
قنقش,20190728,0.00,0.00,0.00,15853.00,0,0.00,0,15853.00
قنقش,20190729,0.00,0.00,0.00,15853.00,0,0.00,0,15853.00
قنقش,20190730,0.00,0.00,0.00,15853.00,0,0.00,0,15853.00
قنقش,20190731,0.00,0.00,0.00,15853.00,0,0.00,0,15853.00
قنقش,20190803,0.00,0.00,0.00,15853.00,0,0.00,0,15853.00
قنقش,20190804,0.00,0.00,0.00,15853.00,0,0.00,0,15853.00
قنقش,20190805,0.00,0.00,0.00,15853.00,0,0.00,0,15853.00
قنقش,20190806,0.00,0.00,0.00,15853.00,0,0.00,0,15853.00
قنقش,20190807,17740.00,17740.00,17630.00,17655.00,167845,2963330030.00,47,15853.00
قنقش,20190810,16940.00,16940.00,13011.00,15610.00,58966,920437626.00,25,17655.00
قنقش,20190811,0.00,0.00,0.00,15610.00,0,0.00,0,15610.00
قنقش,20190813,0.00,0.00,0.00,15610.00,0,0.00,0,15610.00
قنقش,20190814,14770.00,14770.00,14770.00,14770.00,719242,10623204340.00,226,15610.00
قنقش,20190817,14770.00,14770.00,14500.00,14732.00,94120,1386621340.00,49,14770.00
قنقش,20190818,0.00,0.00,0.00,14732.00,0,0.00,0,14732.00
قنقش,20190819,16000.00,16000.00,15000.00,15544.00,59715,928206000.00,34,14732.00
قنقش,20190821,14999.00,14999.00,13950.00,14104.00,61760,871092655.00,19,15544.00
قنقش,20190824,0.00,0.00,0.00,14104.00,0,0.00,0,14104.00
قنقش,20190825,0.00,0.00,0.00,14104.00,0,0.00,0,14104.00
قنقش,20190826,0.00,0.00,0.00,14104.00,0,0.00,0,14104.00
قنقش,20190827,0.00,0.00,0.00,14104.00,0,0.00,0,14104.00
قنقش,20190828,0.00,0.00,0.00,14104.00,0,0.00,0,14104.00
قنقش,20190831,0.00,0.00,0.00,14104.00,0,0.00,0,14104.00
قنقش,20190901,0.00,0.00,0.00,14104.00,0,0.00,0,14104.00
قنقش,20190902,0.00,0.00,0.00,14104.00,0,0.00,0,14104.00
قنقش,20190903,0.00,0.00,0.00,14104.00,0,0.00,0,14104.00
قنقش,20190904,0.00,0.00,0.00,14104.00,0,0.00,0,14104.00
قنقش,20190907,0.00,0.00,0.00,14104.00,0,0.00,0,14104.00
قنقش,20190908,0.00,0.00,0.00,14104.00,0,0.00,0,14104.00
قنقش,20190911,0.00,0.00,0.00,14104.00,0,0.00,0,14104.00
قنقش,20190914,0.00,0.00,0.00,14104.00,0,0.00,0,14104.00
قنقش,20190915,0.00,0.00,0.00,14104.00,0,0.00,0,14104.00
قنقش,20190916,0.00,0.00,0.00,14104.00,0,0.00,0,14104.00
قنقش,20190917,0.00,0.00,0.00,14104.00,0,0.00,0,14104.00
قنقش,20190918,0.00,0.00,0.00,14104.00,0,0.00,0,14104.00
قنقش,20190921,0.00,0.00,0.00,14104.00,0,0.00,0,14104.00
قنقش,20190922,0.00,0.00,0.00,14104.00,0,0.00,0,14104.00
قنقش,20190923,0.00,0.00,0.00,14104.00,0,0.00,0,14104.00
قنقش,20190924,0.00,0.00,0.00,14104.00,0,0.00,0,14104.00
قنقش,20190925,13822.00,13822.00,13822.00,13822.00,50899,703525978.00,5,14104.00
قنقش,20190928,13546.00,14098.00,13546.00,13572.00,1169036,15865573006.00,203,13822.00
قنقش,20190929,13301.00,13843.00,13301.00,13409.00,2492092,33416021727.00,266,13572.00
قنقش,20190930,13677.00,13677.00,13677.00,13677.00,84938,1161697026.00,24,13409.00
قنقش,20191001,13950.00,13950.00,13600.00,13949.00,626397,8737790909.00,123,13677.00
قنقش,20191002,14227.00,14227.00,13700.00,14187.00,537532,7626161972.00,94,13949.00
قنقش,20191005,14470.00,14470.00,14470.00,14470.00,75886,1098070420.00,29,14187.00
قنقش,20191006,14759.00,14759.00,14759.00,14759.00,49252,726910268.00,21,14470.00
قنقش,20191007,15054.00,15054.00,15054.00,15054.00,66904,1007172816.00,21,14759.00
قنقش,20191008,15355.00,15355.00,14753.00,15222.00,340318,5180442121.00,131,15054.00
قنقش,20191009,15520.00,15526.00,15005.00,15463.00,171605,2653555087.00,88,15222.00
قنقش,20191012,15772.00,15772.00,15200.00,15730.00,161630,2542445494.00,60,15463.00
قنقش,20191013,16044.00,16044.00,16000.00,16043.00,225311,3614640384.00,87,15730.00
قنقش,20191014,16360.00,16360.00,15723.00,15813.00,246689,3900847234.00,134,16043.00
قنقش,20191015,15813.00,15999.00,15497.00,15617.00,17231,269092511.00,12,15813.00
قنقش,20191016,15305.00,15890.00,15305.00,15306.00,186511,2854748066.00,51,15617.00
قنقش,20191020,15600.00,15600.00,15000.00,15083.00,7220,108900000.00,7,15306.00
قنقش,20191021,15220.00,15220.00,14480.00,14485.00,160049,2318352420.00,58,15083.00
قنقش,20191022,14774.00,14774.00,14196.00,14512.00,126332,1833373889.00,75,14485.00
قنقش,20191023,14222.00,14650.00,14222.00,14229.00,135749,1931609588.00,47,14512.00
قنقش,20191026,14512.00,14512.00,13945.00,13988.00,17284,241762480.00,21,14229.00
قنقش,20191028,13429.00,14389.00,13429.00,13435.00,146748,1971513092.00,64,13988.00
قنقش,20191030,13167.00,13689.00,13167.00,13218.00,262779,3473382976.00,193,13435.00
قنقش,20191102,13480.00,13480.00,12954.00,12969.00,162134,2102745185.00,106,13218.00
قنقش,20191103,13224.00,13228.00,12710.00,12997.00,135716,1763882916.00,92,12969.00
قنقش,20191104,13256.00,13256.00,13256.00,13256.00,75924,1006448544.00,11,12997.00
قنقش,20191105,13521.00,13521.00,13520.00,13521.00,188740,2551949540.00,64,13256.00
قنقش,20191109,14061.00,14061.00,13700.00,14061.00,138344,1945209002.00,60,13521.00
قنقش,20191110,14341.00,14342.00,13799.00,14298.00,140989,2015839314.00,103,14061.00
قنقش,20191111,14580.00,14580.00,14013.00,14073.00,109436,1540142213.00,72,14298.00
قنقش,20191112,14350.00,14354.00,13792.00,14078.00,258492,3639055491.00,113,14073.00
قنقش,20191113,14359.00,14359.00,14100.00,14356.00,74681,1072118293.00,39,14078.00
قنقش,20191116,14643.00,14643.00,14100.00,14536.00,56171,816492983.00,52,14356.00
قنقش,20191117,14600.00,14600.00,14246.00,14314.00,5187,74248002.00,7,14536.00
قنقش,20191118,14028.00,14599.00,14028.00,14043.00,167396,2350666896.00,59,14314.00
قنقش,20191119,14252.00,14323.00,14002.00,14312.00,125924,1802211407.00,69,14043.00
قنقش,20191120,14598.00,14598.00,14598.00,14598.00,32988,481558824.00,14,14312.00
قنقش,20191123,14889.00,14889.00,14889.00,14889.00,178670,2660217630.00,59,14598.00
قنقش,20191124,15186.00,15186.00,15184.00,15186.00,192697,2926290642.00,72,14889.00
قنقش,20191125,15489.00,15489.00,15489.00,15489.00,135034,2091541626.00,55,15186.00
قنقش,20191126,15798.00,15798.00,15450.00,15783.00,46697,737023206.00,35,15489.00
قنقش,20191127,16414.00,16414.00,16100.00,16411.00,131007,2149940698.00,48,15783.00
قنقش,20191130,16739.00,16739.00,16083.00,16187.00,295166,4777824747.00,138,16411.00
قنقش,20191201,16510.00,16510.00,15864.00,16149.00,128177,2069941186.00,87,16187.00
قنقش,20191202,16468.00,16471.00,16001.00,16446.00,205774,3384219800.00,57,16149.00
قنقش,20191203,16774.00,16774.00,16770.00,16774.00,248644,4170639988.00,56,16446.00
قنقش,20191204,17109.00,17109.00,17109.00,17109.00,35529,607865661.00,5,16774.00
قنقش,20191207,17793.00,17793.00,17793.00,17793.00,162509,2891522637.00,26,17109.00
قنقش,20191208,18148.00,18148.00,18148.00,18148.00,5525,100267700.00,4,17793.00
قنقش,20191209,18510.00,18510.00,18148.00,18510.00,278090,5147423818.00,80,18148.00
قنقش,20191210,18880.00,18880.00,18880.00,18880.00,20976,396026880.00,11,18510.00
قنقش,20191211,19635.00,19635.00,19635.00,19635.00,14008,275047080.00,12,18880.00
قنقش,20191214,20027.00,20027.00,20027.00,20027.00,34529,691512283.00,9,19635.00
قنقش,20191215,20427.00,20427.00,19636.00,20410.00,1035407,21132627466.00,232,20027.00
قنقش,20191216,20818.00,20818.00,20818.00,20818.00,73783,1536014494.00,12,20410.00
قنقش,20191217,21650.00,21650.00,21650.00,21650.00,7433,160924450.00,4,20818.00
قنقش,20191218,22083.00,22083.00,22083.00,22083.00,12827,283258641.00,5,21650.00
قنقش,20191221,22524.00,22524.00,22524.00,22083.00,0,0.00,0,22083.00
قنقش,20191222,22524.00,22524.00,22524.00,22524.00,6516,146766384.00,6,22083.00
قنقش,20191223,23424.00,23424.00,23424.00,23424.00,788370,18466778880.00,101,22524.00
قنقش,20191224,23892.00,23892.00,23892.00,23892.00,6369,152168148.00,8,23424.00
قنقش,20191225,24369.00,24369.00,24369.00,23892.00,0,0.00,0,23892.00
قنقش,20191228,24369.00,24369.00,24369.00,24369.00,38134,929287446.00,8,23892.00
قنقش,20191229,25343.00,25343.00,25343.00,25343.00,25690,651061670.00,6,24369.00
قنقش,20191230,25849.00,25849.00,25849.00,25849.00,30520,788911480.00,9,25343.00
قنقش,20191231,26365.00,26365.00,25333.00,26365.00,684632,18050257121.00,123,25849.00
قنقش,20200101,26892.00,26892.00,25850.00,26890.00,1181970,31783079274.00,290,26365.00
قنقش,20200104,25815.00,27960.00,25815.00,26244.00,1405976,36898297403.00,403,26890.00
قنقش,20200105,26768.00,26768.00,26500.00,26767.00,518961,13890871056.00,116,26244.00
قنقش,20200107,27302.00,27302.00,26232.00,27083.00,1333816,36123875770.00,328,26767.00
قنقش,20200108,26542.00,26542.00,26542.00,26542.00,12445,330315190.00,27,27083.00
قنقش,20200111,27072.00,27072.00,26013.00,27071.00,2317010,62723756926.00,245,26542.00
قنقش,20200112,27612.00,27612.00,27612.00,27612.00,1488665,41105017980.00,138,27071.00
قنقش,20200113,28164.00,28164.00,28164.00,28164.00,201648,5679214272.00,23,27612.00
قنقش,20200114,29290.00,29290.00,28800.00,29288.00,697272,20421878015.00,161,28164.00
قنقش,20200115,29860.00,29860.00,28750.00,29504.00,798111,23547682956.00,458,29288.00
قنقش,20200118,0.00,0.00,0.00,29504.00,0,0.00,0,29504.00
قنقش,20200119,0.00,0.00,0.00,29504.00,0,0.00,0,29504.00
قنقش,20200120,0.00,0.00,0.00,29504.00,0,0.00,0,29504.00
قنقش,20200121,0.00,0.00,0.00,29504.00,0,0.00,0,29504.00
قنقش,20200122,0.00,0.00,0.00,29504.00,0,0.00,0,29504.00
قنقش,20200125,0.00,0.00,0.00,29504.00,0,0.00,0,29504.00
قنقش,20200126,0.00,0.00,0.00,29504.00,0,0.00,0,29504.00
قنقش,20200127,0.00,0.00,0.00,29504.00,0,0.00,0,29504.00
قنقش,20200128,29999.00,30598.00,29999.00,30542.00,1466010,44774630120.00,224,29504.00
قنقش,20200201,31152.00,31152.00,31152.00,31152.00,744780,23201386560.00,294,30542.00
قنقش,20200202,31775.00,31775.00,31775.00,31775.00,232664,7392898600.00,28,31152.00
قنقش,20200203,32410.00,32410.00,32399.00,32410.00,1150208,37278110817.00,222,31775.00
قنقش,20200204,33706.00,33706.00,33650.00,33706.00,1239335,41772963297.00,195,32410.00
قنقش,20200205,34380.00,34380.00,34380.00,34380.00,103112,3544990560.00,29,33706.00
قنقش,20200208,35067.00,35067.00,35067.00,35067.00,210874,7394718558.00,67,34380.00
قنقش,20200209,35768.00,35768.00,35768.00,35768.00,106079,3794233672.00,21,35067.00
قنقش,20200210,37198.00,37198.00,37197.00,37198.00,1004984,37383393832.00,181,35768.00
قنقش,20200212,37941.00,37941.00,37198.00,37934.00,1161891,44074924415.00,228,37198.00
قنقش,20200215,38692.00,38692.00,38692.00,38692.00,54687,2115949404.00,14,37934.00
قنقش,20200216,39465.00,39465.00,39465.00,39465.00,51408,2028816720.00,13,38692.00
قنقش,20200217,41043.00,41043.00,41043.00,41043.00,15035,617081505.00,13,39465.00
قنقش,20200218,41863.00,41863.00,41863.00,41863.00,10269,429891147.00,14,41043.00
قنقش,20200219,42700.00,42700.00,42700.00,42700.00,42921,1832726700.00,23,41863.00
قنقش,20200222,43554.00,43554.00,43554.00,43554.00,112277,4890112458.00,36,42700.00
قنقش,20200223,45296.00,45296.00,45296.00,45296.00,215207,9748016272.00,51,43554.00
قنقش,20200224,46201.00,46201.00,46201.00,46201.00,220583,10191155183.00,37,45296.00
قنقش,20200225,47125.00,47125.00,47125.00,47125.00,132323,6235721375.00,16,46201.00
قنقش,20200226,48067.00,48067.00,48067.00,48067.00,136883,6579555161.00,23,47125.00
قنقش,20200229,48067.00,49989.00,48067.00,49846.00,1373576,68466735996.00,362,48067.00
قنقش,20200301,50842.00,50842.00,48850.00,50717.00,573580,29090047376.00,293,49846.00
قنقش,20200302,51731.00,51731.00,51000.00,51715.00,635511,32865724715.00,215,50717.00
قنقش,20200303,52749.00,52749.00,52749.00,52739.00,205987,10865608263.00,34,51715.00
قنقش,20200304,54848.00,54848.00,54848.00,54848.00,217629,11936515392.00,46,52739.00
قنقش,20200307,55944.00,55944.00,55944.00,55944.00,291216,16291787904.00,142,54848.00
قنقش,20200309,57062.00,57062.00,54826.00,57003.00,440566,25113435443.00,366,55944.00
قنقش,20200310,58143.00,58143.00,55900.00,58135.00,454473,26420923008.00,200,57003.00
قنقش,20200311,60460.00,60460.00,60460.00,60460.00,309958,18740060680.00,134,58135.00
قنقش,20200314,61669.00,61669.00,59251.00,59595.00,1074481,64033402875.00,658,60460.00
قنقش,20200315,58404.00,60500.00,58404.00,59084.00,413120,24408989441.00,234,59595.00
قنقش,20200316,57903.00,60250.00,57903.00,59090.00,1096927,64817002806.00,434,59084.00
قنقش,20200317,0.00,0.00,0.00,59090.00,0,0.00,0,59090.00
قنقش,20200318,0.00,0.00,0.00,59090.00,0,0.00,0,59090.00
قنقش,20200324,0.00,0.00,0.00,59090.00,0,0.00,0,59090.00
قنقش,20200325,0.00,0.00,0.00,59090.00,0,0.00,0,59090.00
قنقش,20200328,0.00,0.00,0.00,59090.00,0,0.00,0,59090.00
قنقش,20200329,0.00,0.00,0.00,59090.00,0,0.00,0,59090.00
قنقش,20200330,0.00,0.00,0.00,59090.00,0,0.00,0,59090.00
قنقش,20200404,0.00,0.00,0.00,59090.00,0,0.00,0,59090.00
قنقش,20200405,0.00,0.00,0.00,59090.00,0,0.00,0,59090.00
قنقش,20200406,0.00,0.00,0.00,59090.00,0,0.00,0,59090.00
قنقش,20200407,0.00,0.00,0.00,59090.00,0,0.00,0,59090.00
قنقش,20200408,0.00,0.00,0.00,59090.00,0,0.00,0,59090.00
قنقش,20200411,70021.00,0.00,0.00,59090.00,0,0.00,0,59090.00
قنقش,20200412,71999.00,73438.00,70560.00,71635.00,978331,70082792549.00,652,59090.00
قنقش,20200413,73067.00,73067.00,70203.00,72140.00,510720,36843140513.00,324,71635.00
قنقش,20200414,73582.00,73582.00,73582.00,73582.00,169473,12470162286.00,162,72140.00
قنقش,20200415,75053.00,75053.00,75053.00,75053.00,170034,12761561802.00,160,73582.00
قنقش,20200418,78055.00,78055.00,76556.00,78055.00,345825,26993223165.00,177,75053.00
قنقش,20200419,79616.00,79616.00,78801.00,79601.00,466923,37167379369.00,308,78055.00
قنقش,20200420,81193.00,81193.00,81193.00,81193.00,203314,16507673602.00,120,79601.00
قنقش,20200421,82816.00,82816.00,82816.00,82816.00,315337,26114948992.00,101,81193.00
قنقش,20200422,84472.00,84472.00,84149.00,84472.00,248626,21001835519.00,112,82816.00
قنقش,20200425,87850.00,87850.00,87850.00,87850.00,221024,19416958400.00,123,84472.00
قنقش,20200426,89607.00,89607.00,89607.00,89607.00,157598,14121883986.00,90,87850.00
قنقش,20200427,91399.00,91399.00,87815.00,91332.00,682796,62360842714.00,461,89607.00
قنقش,20200428,91399.00,93156.00,89506.00,91222.00,1259542,114898573979.00,936,91332.00
قنقش,20200429,93017.00,93017.00,89398.00,90492.00,858560,77693037612.00,1439,91222.00
قنقش,20200502,91900.00,92301.00,90157.00,92053.00,1497464,137845809863.00,2215,90492.00
قنقش,20200503,93800.00,93800.00,90212.00,91498.00,1441474,131892068741.00,2705,92053.00
قنقش,20200504,89669.00,89669.00,89669.00,89669.00,234347,21013661143.00,335,91498.00
قنقش,20200505,87876.00,87876.00,87876.00,89098.00,35170,3090598920.00,86,89669.00
قنقش,20200506,87317.00,87317.00,87317.00,87317.00,400036,34929943412.00,310,89098.00
قنقش,20200509,83825.00,88500.00,83825.00,85096.00,2081582,177133466781.00,2255,87317.00
قنقش,20200510,86797.00,86797.00,83395.00,86492.00,625707,54118941204.00,890,85096.00
قنقش,20200511,86490.00,86490.00,84763.00,84773.00,210364,17833161896.00,245,86492.00
قنقش,20200512,83078.00,83078.00,83078.00,84394.00,25623,2128707594.00,57,84773.00
قنقش,20200513,82707.00,82707.00,82707.00,83199.00,81130,6710018910.00,97,84394.00
قنقش,20200516,79872.00,79872.00,79872.00,82305.00,32304,2580185088.00,64,83199.00
قنقش,20200517,80659.00,80659.00,80659.00,81821.00,35355,2851698945.00,46,82305.00
قنقش,20200518,80185.00,80185.00,80185.00,80185.00,164134,13161084790.00,118,81821.00
قنقش,20200519,78582.00,80186.00,78582.00,78638.00,760525,59805831595.00,788,80185.00
قنقش,20200520,75494.00,81783.00,75493.00,77956.00,640806,49954932947.00,839,78638.00
قنقش,20200523,79515.00,79515.00,79515.00,78786.00,68288,5429920320.00,93,77956.00
قنقش,20200526,80361.00,80361.00,77211.00,79829.00,430941,34401728252.00,381,78786.00
قنقش,20200527,78233.00,81425.00,78233.00,79416.00,269609,21411342172.00,453,79829.00
قنقش,20200530,81004.00,81004.00,79416.00,80562.00,296999,23926728560.00,496,79416.00
قنقش,20200531,80948.00,81000.00,78951.00,79238.00,271554,21517354254.00,287,80562.00
قنقش,20200601,77660.00,79200.00,77654.00,77740.00,123766,9618295879.00,243,79238.00
قنقش,20200602,76200.00,79244.00,76200.00,77739.00,669880,52076023390.00,889,77740.00
قنقش,20200606,79280.00,79293.00,76206.00,79133.00,1190060,94173454676.00,1255,77739.00
قنقش,20200607,81510.00,83140.00,81510.00,82437.00,223968,18463349200.00,188,79133.00
قنقش,20200608,84085.00,84085.00,82000.00,84010.00,906540,76158328522.00,1197,82437.00
قنقش,20200609,85690.00,85690.00,83000.00,85128.00,441760,37606150948.00,751,84010.00
قنقش,20200610,0.00,0.00,0.00,85128.00,0,0.00,0,85128.00
قنقش,20200613,90000.00,0.00,0.00,85128.00,0,0.00,0,85128.00
قنقش,20200614,85000.00,86000.00,83426.00,84279.00,432483,36449451376.00,669,85128.00
قنقش,20200615,85964.00,85964.00,85000.00,85954.00,1240965,106665835251.00,1260,84279.00
قنقش,20200616,87673.00,87673.00,87500.00,87670.00,1317634,115517372074.00,1018,85954.00
قنقش,20200620,89423.00,89423.00,86050.00,87971.00,856981,75389624793.00,1178,87670.00
قنقش,20200621,89000.00,89000.00,86212.00,86539.00,814667,70500776750.00,1258,87971.00
قنقش,20200622,87000.00,88250.00,84809.00,86334.00,909322,78505280019.00,1493,86539.00
قنقش,20200623,88060.00,88060.00,88060.00,88060.00,238380,20991742800.00,492,86334.00
قنقش,20200624,86299.00,89821.00,86299.00,88247.00,545733,48159230386.00,744,88060.00
قنقش,20200627,90011.00,90011.00,88500.00,89979.00,461962,41567073948.00,608,88247.00
قنقش,20200628,91000.00,91700.00,88180.00,88630.00,440269,39020965361.00,495,89979.00
قنقش,20200629,86858.00,86858.00,86858.00,86858.00,158728,13786796624.00,154,88630.00
قنقش,20200630,85121.00,88595.00,85121.00,86675.00,1521876,131908425375.00,1711,86858.00
قنقش,20200701,88240.00,88240.00,84942.00,85883.00,975801,83804886675.00,1012,86675.00
قنقش,20200704,84168.00,85492.00,84166.00,84233.00,218448,18400425915.00,368,85883.00
قنقش,20200705,82549.00,85917.00,82549.00,83998.00,833433,70006859785.00,1000,84233.00
قنقش,20200706,82320.00,85675.00,82320.00,84662.00,703363,59548209066.00,1033,83998.00
قنقش,20200707,84500.00,84500.00,82969.00,83151.00,646924,53792306819.00,747,84662.00
قنقش,20200708,81488.00,84814.00,81488.00,84121.00,1045963,87987775724.00,846,83151.00
قنقش,20200711,82439.00,84000.00,82439.00,82576.00,300767,24836149553.00,428,84121.00
قنقش,20200712,84000.00,84227.00,81006.00,84162.00,546783,46018455698.00,615,82576.00
قنقش,20200713,85845.00,85845.00,84000.00,85793.00,173695,14901869501.00,330,84490.00
قنقش,20200714,87508.00,87508.00,87508.00,87048.00,87000,7613196000.00,184,85793.00
قنقش,20200715,90529.00,90529.00,90500.00,90529.00,2339242,211768958018.00,1081,87048.00
قنقش,20200718,92339.00,92339.00,92339.00,92339.00,1305079,120509689781.00,216,90529.00
قنقش,20200719,94185.00,94185.00,94185.00,94185.00,601763,56677048155.00,154,92339.00
قنقش,20200720,96068.00,96068.00,96068.00,96068.00,151463,14550747484.00,126,94185.00
قنقش,20200721,99910.00,99910.00,99910.00,99910.00,194143,19396827130.00,148,96068.00
قنقش,20200722,101908.00,101908.00,101908.00,101908.00,321246,32737537368.00,229,99910.00
قنقش,20200725,103946.00,103946.00,99870.00,102228.00,2006441,205114980906.00,1918,101908.00
قنقش,20200726,103585.00,103890.00,100184.00,100419.00,400260,40193772075.00,471,102228.00
قنقش,20200727,98411.00,98411.00,98411.00,98535.00,92047,9058437317.00,103,100419.00
قنقش,20200728,0.00,0.00,0.00,98535.00,0,0.00,0,98535.00
قنقش,20200729,0.00,0.00,0.00,98535.00,0,0.00,0,98535.00
قنقش,20200801,0.00,0.00,0.00,98535.00,0,0.00,0,98535.00
قنقش,20200802,97000.00,97000.00,97000.00,97571.00,63761,6184817000.00,32,98535.00
قنقش,20200803,0.00,0.00,0.00,97571.00,0,0.00,0,97571.00
قنقش,20200804,95620.00,95620.00,95620.00,97150.00,21913,2095321060.00,48,97571.00
قنقش,20200805,95207.00,95207.00,95207.00,96586.00,29470,2805750290.00,39,97150.00
قنقش,20200809,94655.00,98517.00,94655.00,95890.00,2366222,226896457232.00,1550,96586.00
قنقش,20200810,97807.00,97807.00,93973.00,96008.00,922450,88562706409.00,799,95890.00
قنقش,20200811,94088.00,97928.00,94088.00,97701.00,1140965,111473938673.00,562,96008.00
قنقش,20200812,99650.00,99653.00,95747.00,96883.00,653304,63293990149.00,368,97701.00
قنقش,20200815,94946.00,94946.00,94946.00,96291.00,31528,2993457488.00,49,96883.00
قنقش,20200816,94366.00,94366.00,94366.00,96164.00,6784,640178944.00,23,96291.00
قنقش,20200817,92318.00,92320.00,92318.00,92318.00,170801,15768010018.00,160,96164.00
قنقش,20200818,90500.00,93000.00,90472.00,90529.00,396619,35905507253.00,141,92318.00
قنقش,20200819,88719.00,88719.00,88719.00,90057.00,26913,2387694447.00,26,90529.00
قنقش,20200822,88256.00,88258.00,88256.00,88256.00,751101,66289169966.00,213,90057.00
قنقش,20200823,84726.00,88000.00,84726.00,84727.00,427766,36243373393.00,140,88256.00
قنقش,20200824,83033.00,83033.00,83033.00,84107.00,40672,3377118176.00,14,84727.00
قنقش,20200825,82425.00,82425.00,82425.00,83684.00,27935,2302542375.00,41,84107.00
قنقش,20200826,82011.00,82012.00,82011.00,82011.00,297413,24391137605.00,222,83684.00
قنقش,20200831,80371.00,80371.00,80371.00,81224.00,58519,4703230549.00,67,82011.00
قنقش,20200901,79600.00,79600.00,79600.00,81152.00,5401,429919600.00,6,81224.00
قنقش,20200902,79529.00,79529.00,79529.00,81148.00,300,23858700.00,3,81152.00
قنقش,20200905,77903.00,77903.00,77903.00,80994.00,5864,456823192.00,12,81148.00
قنقش,20200906,79375.00,79375.00,79375.00,80973.00,1572,124777500.00,9,80994.00
قنقش,20200907,79354.00,79354.00,79354.00,80949.00,1838,145852652.00,5,80973.00
قنقش,20200908,79331.00,79331.00,79331.00,80851.00,7481,593475211.00,14,80949.00
قنقش,20200909,0.00,0.00,0.00,80851.00,0,0.00,0,80851.00
قنقش,20200912,0.00,0.00,0.00,80851.00,0,0.00,0,80851.00
قنقش,20200913,79234.00,79234.00,79234.00,80850.00,69,5467146.00,1,80851.00
قنقش,20200914,79233.00,81398.00,79233.00,79258.00,1600177,126826912189.00,345,80850.00
قنقش,20200915,77673.00,80843.00,77673.00,78539.00,1049736,82445670877.00,512,79258.00
قنقش,20200916,77000.00,78510.00,76969.00,76981.00,851045,65514437311.00,270,78539.00
قنقش,20200919,75442.00,76981.00,75442.00,75449.00,465301,35106591620.00,178,76981.00
قنقش,20200920,73941.00,76957.00,73941.00,74546.00,934103,69633684039.00,301,75449.00
قنقش,20200921,76036.00,76036.00,76036.00,75637.00,95096,7230719456.00,134,74546.00
قنقش,20200922,77149.00,77149.00,77149.00,76445.00,69402,5354294898.00,53,75637.00
قنقش,20200923,0.00,0.00,0.00,76445.00,0,0.00,0,76445.00
قنقش,20200926,0.00,0.00,0.00,76445.00,0,0.00,0,76445.00
قنقش,20200927,0.00,0.00,0.00,76445.00,0,0.00,0,76445.00
قنقش,20200928,0.00,0.00,0.00,76445.00,0,0.00,0,76445.00
قنقش,20200929,0.00,0.00,0.00,75795.00,0,0.00,0,75795.00
قنقش,20200930,0.00,0.00,0.00,75795.00,0,0.00,0,75795.00
قنقش,20201003,0.00,0.00,0.00,75795.00,0,0.00,0,75795.00
قنقش,20201004,0.00,0.00,0.00,75795.00,0,0.00,0,75795.00
قنقش,20201005,0.00,0.00,0.00,75795.00,0,0.00,0,75795.00
قنقش,20201006,0.00,0.00,0.00,75795.00,0,0.00,0,75795.00
قنقش,20201007,0.00,0.00,0.00,75795.00,0,0.00,0,75795.00
قنقش,20201010,0.00,0.00,0.00,75795.00,0,0.00,0,75795.00
قنقش,20201011,0.00,0.00,0.00,75795.00,0,0.00,0,75795.00
قنقش,20201012,0.00,0.00,0.00,75795.00,0,0.00,0,75795.00
قنقش,20201013,0.00,0.00,0.00,75795.00,0,0.00,0,75795.00
قنقش,20201014,0.00,0.00,0.00,75795.00,0,0.00,0,75795.00
قنقش,20201018,0.00,0.00,0.00,75795.00,0,0.00,0,75795.00
قنقش,20201019,0.00,0.00,0.00,75795.00,0,0.00,0,75795.00
قنقش,20201020,0.00,0.00,0.00,75795.00,0,0.00,0,75795.00
قنقش,20201021,0.00,0.00,0.00,75795.00,0,0.00,0,75795.00
قنقش,20201024,0.00,0.00,0.00,75795.00,0,0.00,0,75795.00
قنقش,20201026,0.00,0.00,0.00,75795.00,0,0.00,0,75795.00
قنقش,20201027,0.00,0.00,0.00,75795.00,0,0.00,0,75795.00
قنقش,20201028,0.00,0.00,0.00,75795.00,0,0.00,0,75795.00
قنقش,20201031,0.00,0.00,0.00,75795.00,0,0.00,0,75795.00
قنقش,20201101,0.00,0.00,0.00,75795.00,0,0.00,0,75795.00
قنقش,20201102,0.00,0.00,0.00,75795.00,0,0.00,0,75795.00
قنقش,20201104,0.00,0.00,0.00,75795.00,0,0.00,0,75795.00
قنقش,20201107,0.00,0.00,0.00,75795.00,0,0.00,0,75795.00
قنقش,20201108,0.00,0.00,0.00,75795.00,0,0.00,0,75795.00
قنقش,20201109,0.00,0.00,0.00,75795.00,0,0.00,0,75795.00
قنقش,20201110,0.00,0.00,0.00,75795.00,0,0.00,0,75795.00
قنقش,20201111,0.00,0.00,0.00,75795.00,0,0.00,0,75795.00
قنقش,20201114,0.00,0.00,0.00,75795.00,0,0.00,0,75795.00
قنقش,20201115,0.00,0.00,0.00,75795.00,0,0.00,0,75795.00
قنقش,20201116,0.00,0.00,0.00,75795.00,0,0.00,0,75795.00
قنقش,20201117,0.00,0.00,0.00,75795.00,0,0.00,0,75795.00
قنقش,20201118,0.00,0.00,0.00,75795.00,0,0.00,0,75795.00
قنقش,20201121,0.00,0.00,0.00,75795.00,0,0.00,0,75795.00
قنقش,20201122,0.00,0.00,0.00,75795.00,0,0.00,0,75795.00
قنقش,20201123,0.00,0.00,0.00,75795.00,0,0.00,0,75795.00
قنقش,20201124,0.00,0.00,0.00,75795.00,0,0.00,0,75795.00
قنقش,20201125,0.00,0.00,0.00,75795.00,0,0.00,0,75795.00
قنقش,20201128,0.00,0.00,0.00,75795.00,0,0.00,0,75795.00
قنقش,20201129,0.00,0.00,0.00,75795.00,0,0.00,0,75795.00
قنقش,20201130,0.00,0.00,0.00,75795.00,0,0.00,0,75795.00
قنقش,20201201,0.00,0.00,0.00,75795.00,0,0.00,0,75795.00
قنقش,20201202,0.00,0.00,0.00,75795.00,0,0.00,0,75795.00
قنقش,20201205,0.00,0.00,0.00,75795.00,0,0.00,0,75795.00
قنقش,20201206,0.00,0.00,0.00,75795.00,0,0.00,0,75795.00
قنقش,20201207,0.00,0.00,0.00,75795.00,0,0.00,0,75795.00
قنقش,20201208,0.00,0.00,0.00,75795.00,0,0.00,0,75795.00
قنقش,20201209,0.00,0.00,0.00,75795.00,0,0.00,0,75795.00
قنقش,20201212,0.00,0.00,0.00,75795.00,0,0.00,0,75795.00
قنقش,20201213,0.00,0.00,0.00,75795.00,0,0.00,0,75795.00
قنقش,20201214,0.00,0.00,0.00,75795.00,0,0.00,0,75795.00
قنقش,20201215,0.00,0.00,0.00,75795.00,0,0.00,0,75795.00
قنقش,20201216,0.00,0.00,0.00,75795.00,0,0.00,0,75795.00
قنقش,20201219,0.00,0.00,0.00,75795.00,0,0.00,0,75795.00
قنقش,20201220,0.00,0.00,0.00,75795.00,0,0.00,0,75795.00
قنقش,20201221,0.00,0.00,0.00,75795.00,0,0.00,0,75795.00
قنقش,20201222,0.00,0.00,0.00,75795.00,0,0.00,0,75795.00
قنقش,20201223,0.00,0.00,0.00,75795.00,0,0.00,0,75795.00
قنقش,20201226,0.00,0.00,0.00,75795.00,0,0.00,0,75795.00
قنقش,20201227,0.00,0.00,0.00,75795.00,0,0.00,0,75795.00
قنقش,20201228,0.00,0.00,0.00,75795.00,0,0.00,0,75795.00
قنقش,20201229,0.00,0.00,0.00,75795.00,0,0.00,0,75795.00
قنقش,20201230,0.00,0.00,0.00,75795.00,0,0.00,0,75795.00
قنقش,20210102,0.00,0.00,0.00,75795.00,0,0.00,0,75795.00
قنقش,20210103,0.00,0.00,0.00,75795.00,0,0.00,0,75795.00
قنقش,20210104,0.00,0.00,0.00,75795.00,0,0.00,0,75795.00
قنقش,20210105,0.00,0.00,0.00,75795.00,0,0.00,0,75795.00
قنقش,20210106,0.00,0.00,0.00,75795.00,0,0.00,0,75795.00
قنقش,20210109,0.00,0.00,0.00,75795.00,0,0.00,0,75795.00
قنقش,20210110,0.00,0.00,0.00,75795.00,0,0.00,0,75795.00
قنقش,20210111,0.00,0.00,0.00,76445.00,0,0.00,0,76445.00
قنقش,20210112,0.00,0.00,0.00,76111.00,0,0.00,0,76111.00
قنقش,20210113,84000.00,0.00,0.00,76111.00,0,0.00,0,76111.00
قنقش,20210116,77633.00,77633.00,74589.00,76539.00,99609,7637539643.00,97,76111.00
قنقش,20210118,0.00,0.00,0.00,76539.00,0,0.00,0,76539.00
قنقش,20210119,75009.00,75009.00,75009.00,75922.00,52967,3973001703.00,19,76539.00
قنقش,20210120,72886.00,72886.00,72886.00,74205.00,74307,5415940002.00,34,75922.00
قنقش,20210123,72721.00,72721.00,72721.00,74008.00,17930,1303887530.00,17,74205.00
قنقش,20210124,72528.00,72528.00,72528.00,73976.00,2884,209170752.00,9,74008.00
قنقش,20210125,72497.00,72497.00,72497.00,73966.00,920,66697240.00,11,73976.00
قنقش,20210126,71008.00,71008.00,71008.00,73884.00,3736,265285888.00,10,73966.00
قنقش,20210127,0.00,0.00,0.00,73884.00,0,0.00,0,73884.00
قنقش,20210130,72407.00,72407.00,72407.00,73766.00,10854,785905578.00,14,73884.00
قنقش,20210131,72291.00,75241.00,72291.00,73208.00,1687815,123561579709.00,1509,73766.00
قنقش,20210201,70280.00,76136.00,70280.00,74850.00,2088780,156345629252.00,1766,73208.00
قنقش,20210202,76347.00,76347.00,73353.00,74601.00,1291011,96310934583.00,1013,74850.00
قنقش,20210203,73110.00,76093.00,73109.00,74840.00,829918,62111183315.00,577,74601.00
قنقش,20210206,76336.00,76336.00,73345.00,76062.00,553806,42123376238.00,612,74840.00
قنقش,20210207,77583.00,77583.00,76501.00,77569.00,526506,40840775396.00,361,76062.00
قنقش,20210208,80671.00,80671.00,76203.00,80573.00,2644763,213095628489.00,1644,77569.00
قنقش,20210209,82184.00,82184.00,78962.00,79302.00,973628,77210447013.00,1016,80573.00
قنقش,20210213,77716.00,77716.00,77716.00,77995.00,103919,8076169004.00,83,79302.00
قنقش,20210214,76436.00,78300.00,76436.00,76584.00,579999,44418735215.00,327,77995.00
قنقش,20210215,78110.00,78110.00,75053.00,75701.00,417724,31622231492.00,496,76584.00
قنقش,20210216,74187.00,76000.00,74187.00,74533.00,258702,19281763698.00,195,75701.00
قنقش,20210217,73043.00,74187.00,73043.00,74051.00,40851,2983957385.00,55,74533.00
قنقش,20210220,71089.00,71089.00,71089.00,71566.00,113278,8052819742.00,66,74051.00
قنقش,20210221,70135.00,70135.00,70135.00,71524.00,3984,279417840.00,11,71566.00
قنقش,20210222,70094.00,70094.00,70094.00,71518.00,608,42617152.00,7,71524.00
قنقش,20210223,70088.00,70088.00,70088.00,71490.00,2654,186013552.00,6,71518.00
قنقش,20210224,68631.00,68631.00,68631.00,70804.00,32425,2225360175.00,37,71490.00
قنقش,20210227,69388.00,69388.00,69388.00,70772.00,3193,221555884.00,3,70804.00
قنقش,20210228,0.00,0.00,0.00,70772.00,0,0.00,0,70772.00
قنقش,20210301,0.00,0.00,0.00,70772.00,0,0.00,0,70772.00
قنقش,20210302,67942.00,69357.00,67942.00,68123.00,1616932,110151020493.00,220,70772.00
قنقش,20210303,66761.00,69485.00,66761.00,69027.00,205641,14194686294.00,220,68123.00
قنقش,20210306,70407.00,70407.00,70407.00,70135.00,116357,8192347299.00,90,69027.00
قنقش,20210307,71537.00,71537.00,71537.00,70640.00,52218,3735519066.00,55,70135.00
قنقش,20210308,73465.00,73465.00,72000.00,73418.00,807515,59286109311.00,156,70640.00
قنقش,20210309,74886.00,74886.00,71950.00,74840.00,1075290,80474636221.00,317,73418.00
قنقش,20210310,76336.00,76336.00,73350.00,75833.00,424473,32188899036.00,516,74840.00
قنقش,20210313,77340.00,77349.00,74317.00,76080.00,159971,12170641180.00,252,75833.00
قنقش,20210314,74559.00,75990.00,74559.00,74632.00,350176,26134348636.00,217,76080.00
قنقش,20210315,73140.00,75840.00,73140.00,73892.00,87371,6423069406.00,123,74632.00
قنقش,20210316,72415.00,73500.00,72415.00,72801.00,97657,7072220755.00,62,73892.00
قنقش,20210317,71345.00,73840.00,71345.00,71493.00,522084,37325365226.00,301,72801.00
قنقش,20210327,72922.00,72922.00,70064.00,71737.00,78977,5680419816.00,184,71493.00
قنقش,20210328,70304.00,71800.00,70303.00,70433.00,285050,20076975453.00,204,71737.00
قنقش,20210330,69290.00,71841.00,69026.00,71234.00,139041,9905147413.00,168,70433.00
قنقش,20210331,70100.00,72658.00,70002.00,72499.00,147122,10666139991.00,148,71234.00
قنقش,20210403,71250.00,73948.00,71250.00,73872.00,192686,14234079848.00,198,72499.00
قنقش,20210404,75330.00,75330.00,72395.00,73273.00,89690,6542995893.00,164,73872.00
قنقش,20210405,73273.00,74738.00,72500.00,74222.00,224695,16677318078.00,255,73273.00
قنقش,20210406,72738.00,75706.00,72738.00,75545.00,152225,11499877541.00,203,74222.00
قنقش,20210407,74210.00,76990.00,74035.00,74296.00,119828,8880110602.00,167,75545.00
قنقش,20210410,72811.00,72811.00,72811.00,74283.00,1172,85334492.00,8,74296.00
قنقش,20210411,72798.00,72798.00,72798.00,74282.00,70,5095860.00,1,74283.00
قنقش,20210412,72797.00,72797.00,72797.00,74265.00,1541,112180177.00,2,74282.00
قنقش,20210413,71295.00,71295.00,71295.00,73507.00,34331,2447628645.00,31,74265.00
قنقش,20210414,72037.00,72037.00,72037.00,73506.00,100,7203700.00,1,73507.00
قنقش,20210417,0.00,0.00,0.00,73506.00,0,0.00,0,73506.00
قنقش,20210418,0.00,0.00,0.00,73506.00,0,0.00,0,73506.00
قنقش,20210419,70566.00,70566.00,70566.00,73502.00,204,14395464.00,2,73506.00
قنقش,20210420,72032.00,72032.00,72032.00,73501.00,76,5474432.00,1,73502.00
قنقش,20210421,72031.00,72031.00,72031.00,73500.00,70,5042170.00,1,73501.00
قنقش,20210424,0.00,0.00,0.00,73500.00,0,0.00,0,73500.00
قنقش,20210425,70560.00,70560.00,70560.00,73487.00,600,42336000.00,2,73500.00
قنقش,20210426,72018.00,72018.00,72018.00,73470.00,1605,115588890.00,2,73487.00
قنقش,20210427,0.00,0.00,0.00,73470.00,0,0.00,0,73470.00
قنقش,20210428,0.00,0.00,0.00,73470.00,0,0.00,0,73470.00
قنقش,20210501,70532.00,70532.00,70532.00,73453.00,773,54521236.00,4,73470.00
قنقش,20210502,0.00,0.00,0.00,73453.00,0,0.00,0,73453.00
قنقش,20210503,0.00,0.00,0.00,73453.00,0,0.00,0,73453.00
قنقش,20210505,71984.00,71984.00,71984.00,73451.00,140,10077760.00,1,73453.00
قنقش,20210508,0.00,0.00,0.00,73451.00,0,0.00,0,73451.00
قنقش,20210509,71982.00,71982.00,71982.00,73448.00,270,19435140.00,1,73451.00
قنقش,20210510,0.00,0.00,0.00,73448.00,0,0.00,0,73448.00
قنقش,20210511,71980.00,71980.00,71980.00,71980.00,1459509,105055457820.00,34,73448.00
قنقش,20210512,70541.00,70541.00,70541.00,71979.00,80,5643280.00,1,71980.00
قنقش,20210515,70540.00,70540.00,70540.00,71975.00,217,15307180.00,2,71979.00
قنقش,20210516,69096.00,69096.00,69096.00,71850.00,3025,209015400.00,2,71975.00
قنقش,20210517,0.00,0.00,0.00,71850.00,0,0.00,0,71850.00
قنقش,20210518,0.00,0.00,0.00,71850.00,0,0.00,0,71850.00
قنقش,20210519,0.00,0.00,0.00,71850.00,0,0.00,0,71850.00
قنقش,20210522,68976.00,68976.00,68976.00,71807.00,1050,72424800.00,3,71850.00
قنقش,20210523,0.00,0.00,0.00,71807.00,0,0.00,0,71807.00
قنقش,20210524,0.00,0.00,0.00,71807.00,0,0.00,0,71807.00
قنقش,20210525,70371.00,70371.00,70371.00,71806.00,72,5066712.00,1,71807.00
قنقش,20210526,70370.00,70370.00,70370.00,71801.00,255,17944350.00,2,71806.00
قنقش,20210529,68929.00,68929.00,68929.00,71737.00,1561,107598169.00,6,71801.00
قنقش,20210530,70303.00,70303.00,70303.00,71729.00,398,27980594.00,4,71737.00
قنقش,20210531,70295.00,70295.00,70295.00,71728.00,72,5061240.00,1,71729.00
قنقش,20210601,70294.00,70294.00,70294.00,71725.00,130,9138220.00,1,71728.00
قنقش,20210602,68856.00,68856.00,68856.00,71597.00,3104,213729024.00,6,71725.00
قنقش,20210607,0.00,0.00,0.00,71597.00,0,0.00,0,71597.00
قنقش,20210608,0.00,0.00,0.00,71597.00,0,0.00,0,71597.00
قنقش,20210609,70166.00,70166.00,70166.00,71530.00,3272,229583152.00,4,71597.00
قنقش,20210612,0.00,0.00,0.00,71530.00,0,0.00,0,71530.00
قنقش,20210613,0.00,0.00,0.00,71530.00,0,0.00,0,71530.00
قنقش,20210614,70100.00,70100.00,70100.00,71522.00,400,28040000.00,1,71530.00
قنقش,20210615,0.00,0.00,0.00,71522.00,0,0.00,0,71522.00
قنقش,20210616,50261.00,0.00,0.00,71522.00,0,0.00,0,71522.00
قنقش,20210619,0.00,0.00,0.00,71522.00,0,0.00,0,71522.00
قنقش,20210620,0.00,0.00,0.00,71522.00,0,0.00,0,71522.00
قنقش,20210621,70092.00,70092.00,70092.00,71519.00,142,9953064.00,1,71522.00
قنقش,20210622,68659.00,68659.00,68659.00,71507.00,300,20597700.00,1,71519.00
قنقش,20210623,0.00,0.00,0.00,71507.00,0,0.00,0,71507.00
قنقش,20210626,70077.00,70077.00,70077.00,71501.00,290,20322330.00,2,71507.00
قنقش,20210627,0.00,0.00,0.00,71501.00,0,0.00,0,71501.00
قنقش,20210628,68641.00,68641.00,68641.00,71443.00,1414,97058374.00,4,71501.00
قنقش,20210629,0.00,0.00,0.00,71443.00,0,0.00,0,71443.00
قنقش,20210630,0.00,0.00,0.00,71443.00,0,0.00,0,71443.00
قنقش,20210703,0.00,0.00,0.00,71443.00,0,0.00,0,71443.00
قنقش,20210704,68586.00,68586.00,68586.00,71402.00,1000,68586000.00,1,71443.00
قنقش,20210705,0.00,0.00,0.00,71402.00,0,0.00,0,71402.00
قنقش,20210706,69974.00,69974.00,69974.00,71400.00,77,5387998.00,1,71402.00
قنقش,20210707,69972.00,69972.00,69972.00,71392.00,384,26869248.00,2,71400.00
قنقش,20210710,68537.00,68537.00,68537.00,71380.00,290,19875730.00,1,71392.00
قنقش,20210711,0.00,0.00,0.00,71380.00,0,0.00,0,71380.00
قنقش,20210712,0.00,0.00,0.00,71380.00,0,0.00,0,71380.00
قنقش,20210713,0.00,0.00,0.00,71380.00,0,0.00,0,71380.00
قنقش,20210714,0.00,0.00,0.00,71380.00,0,0.00,0,71380.00
قنقش,20210717,0.00,0.00,0.00,71380.00,0,0.00,0,71380.00
قنقش,20210718,0.00,0.00,0.00,71380.00,0,0.00,0,71380.00
قنقش,20210719,0.00,0.00,0.00,71380.00,0,0.00,0,71380.00
قنقش,20210726,0.00,0.00,0.00,71380.00,0,0.00,0,71380.00
قنقش,20210727,0.00,0.00,0.00,71380.00,0,0.00,0,71380.00
قنقش,20210728,0.00,0.00,0.00,71380.00,0,0.00,0,71380.00
قنقش,20210731,0.00,0.00,0.00,71380.00,0,0.00,0,71380.00
قنقش,20210801,69953.00,69953.00,69953.00,71377.00,142,9933326.00,1,71380.00
قنقش,20210802,68522.00,68522.00,68522.00,71364.00,310,21241820.00,3,71377.00
قنقش,20210803,0.00,0.00,0.00,71364.00,0,0.00,0,71364.00
قنقش,20210804,0.00,0.00,0.00,71364.00,0,0.00,0,71364.00
قنقش,20210807,69937.00,69937.00,69937.00,71360.00,177,12378849.00,2,71364.00
قنقش,20210808,68506.00,68506.00,68506.00,71275.00,2093,143383058.00,4,71360.00
قنقش,20210809,0.00,0.00,0.00,71275.00,0,0.00,0,71275.00
قنقش,20210810,69850.00,69850.00,69850.00,71264.00,542,37858700.00,4,71275.00
قنقش,20210811,69839.00,69839.00,69839.00,71261.00,164,11453596.00,2,71264.00
قنقش,20210814,68411.00,68411.00,68411.00,69110.00,52944,3621951984.00,12,71261.00
قنقش,20210815,67728.00,67728.00,67728.00,67728.00,76965,5212685520.00,20,69110.00
قنقش,20210822,66374.00,66374.00,66374.00,66374.00,247664,16438450336.00,72,67728.00
قنقش,20210823,65047.00,65047.00,65047.00,65162.00,67446,4387159962.00,16,66374.00
قنقش,20210824,62556.00,64121.00,62556.00,62780.00,2233092,140192884750.00,1757,65162.00
قنقش,20210825,61530.00,64035.00,61525.00,62984.00,864615,54457053235.00,963,62780.00
قنقش,20210828,64243.00,64243.00,64243.00,64243.00,234067,15037166281.00,171,62984.00
قنقش,20210829,65527.00,65527.00,62959.00,65066.00,740211,48162540915.00,717,64243.00
قنقش,20210830,64023.00,66367.00,63765.00,64828.00,362750,23516523833.00,339,65066.00
قنقش,20210831,63532.00,64700.00,63532.00,63562.00,103668,6589390848.00,156,64828.00
قنقش,20210901,62300.00,64833.00,62300.00,64564.00,335168,21639647303.00,286,63562.00
قنقش,20210904,63333.00,65855.00,63333.00,65817.00,152667,10048044137.00,141,64564.00
قنقش,20210905,67133.00,67133.00,67133.00,67058.00,73010,4901380330.00,46,65817.00
قنقش,20210906,0.00,0.00,0.00,67058.00,0,0.00,0,67058.00
قنقش,20210907,0.00,0.00,0.00,67058.00,0,0.00,0,67058.00
قنقش,20210908,68399.00,68399.00,68399.00,68399.00,198682,13589650118.00,52,67058.00
قنقش,20210911,69766.00,69766.00,68399.00,69753.00,521745,36393504356.00,154,68399.00
قنقش,20210912,71148.00,71148.00,68375.00,71023.00,315974,22441522989.00,261,69753.00
قنقش,20210913,72443.00,72443.00,72443.00,72443.00,260864,18897770752.00,71,71023.00
قنقش,20210914,75340.00,75340.00,73200.00,75337.00,1317034,99220962780.00,285,72443.00
قنقش,20210915,76843.00,76843.00,76843.00,76843.00,82781,6361140383.00,85,75337.00
قنقش,20210918,78379.00,78379.00,78379.00,78379.00,113701,8911770679.00,55,76843.00
قنقش,20210919,79946.00,79946.00,79946.00,79946.00,74731,5974444526.00,35,78379.00
قنقش,20210920,81544.00,81544.00,81544.00,81544.00,68250,5565378000.00,36,79946.00
قنقش,20210921,84805.00,84805.00,84805.00,84805.00,509887,43240967035.00,131,81544.00
قنقش,20210922,86501.00,86501.00,84500.00,86394.00,2807350,242539428714.00,1305,84805.00
قنقش,20210925,86394.00,86394.00,84667.00,84797.00,412215,34954693983.00,222,86394.00
قنقش,20210926,83102.00,86492.00,83102.00,83781.00,513435,43016245630.00,423,84797.00
قنقش,20210928,85456.00,85456.00,85456.00,84674.00,30865,2637599440.00,46,83781.00
قنقش,20210929,86367.00,86367.00,86367.00,86367.00,73069,6310750323.00,42,84674.00
قنقش,20211002,88094.00,88094.00,88094.00,88094.00,65912,5806451728.00,59,86367.00
قنقش,20211003,91617.00,91617.00,90557.00,91616.00,635189,58193252707.00,268,88094.00
قنقش,20211004,93448.00,93448.00,93448.00,93448.00,1074671,100425855608.00,296,91616.00
قنقش,20211006,95316.00,95316.00,95316.00,93782.00,10349,986425284.00,30,93448.00
قنقش,20211009,95657.00,95657.00,95657.00,95657.00,410069,39225970333.00,98,93782.00
قنقش,20211010,99483.00,99483.00,99483.00,99483.00,550684,54783696372.00,100,95657.00
قنقش,20211011,101472.00,101472.00,97494.00,101063.00,1359392,137384282604.00,1163,99483.00
قنقش,20211012,103081.00,103081.00,99042.00,99428.00,498964,49611033867.00,368,101063.00
قنقش,20211013,101416.00,101416.00,99450.00,101078.00,507878,51335469346.00,602,99428.00
قنقش,20211016,101416.00,103010.00,99057.00,101030.00,475563,48046225177.00,572,101078.00
قنقش,20211017,101030.00,102000.00,99035.00,99911.00,161130,16098624580.00,242,101030.00
قنقش,20211018,0.00,0.00,0.00,99911.00,0,0.00,0,99911.00
قنقش,20211019,0.00,0.00,0.00,99911.00,0,0.00,0,99911.00
قنقش,20211020,0.00,0.00,0.00,99911.00,0,0.00,0,99911.00
قنقش,20211023,0.00,0.00,0.00,99911.00,0,0.00,0,99911.00
قنقش,20211025,0.00,0.00,0.00,99911.00,0,0.00,0,99911.00
قنقش,20211026,97913.00,100000.00,97913.00,98000.00,173341,16987433276.00,126,99911.00
قنقش,20211027,96040.00,99960.00,96040.00,99616.00,57212,5699226466.00,105,98000.00
قنقش,20211030,101608.00,101608.00,101599.00,101608.00,344409,34994626749.00,109,99616.00
قنقش,20211031,103640.00,103640.00,103640.00,103640.00,124230,12875197200.00,110,101608.00
قنقش,20211101,107785.00,107785.00,107785.00,107785.00,88788,9570014580.00,46,103640.00
قنقش,20211102,109940.00,109940.00,109940.00,109556.00,45682,5022279080.00,45,107785.00
قنقش,20211103,0.00,0.00,0.00,109556.00,0,0.00,0,109556.00
قنقش,20211106,0.00,0.00,0.00,109556.00,0,0.00,0,109556.00
قنقش,20211107,0.00,0.00,0.00,109556.00,0,0.00,0,109556.00
قنقش,20211108,0.00,0.00,0.00,109556.00,0,0.00,0,109556.00
قنقش,20211109,0.00,0.00,0.00,109556.00,0,0.00,0,109556.00
قنقش,20211110,0.00,0.00,0.00,109556.00,0,0.00,0,109556.00
قنقش,20211113,0.00,0.00,0.00,109556.00,0,0.00,0,109556.00
قنقش,20211114,0.00,0.00,0.00,109556.00,0,0.00,0,109556.00
قنقش,20211115,0.00,0.00,0.00,109556.00,0,0.00,0,109556.00
قنقش,20211116,0.00,0.00,0.00,109556.00,0,0.00,0,109556.00
قنقش,20211117,111747.00,111747.00,111740.00,111747.00,155164,17339081555.00,85,109556.00
قنقش,20211120,113981.00,113981.00,111780.00,113850.00,181879,20706864907.00,300,111747.00
قنقش,20211121,116127.00,116127.00,116127.00,116127.00,119702,13900634154.00,87,113850.00
قنقش,20211122,118449.00,118449.00,118449.00,118218.00,50079,5931807471.00,86,116127.00
قنقش,20211123,122900.00,122946.00,118270.00,122844.00,562843,69142158829.00,469,118218.00
قنقش,20211124,125300.00,125300.00,125300.00,125300.00,161751,20267400300.00,129,122844.00
قنقش,20211127,127806.00,127806.00,122794.00,125427.00,343872,43130815540.00,534,125300.00
قنقش,20211128,126330.00,127935.00,122919.00,123758.00,158605,19628569214.00,265,125427.00
قنقش,20211129,121283.00,121283.00,121283.00,122948.00,18207,2208199581.00,29,123758.00
قنقش,20211130,120490.00,120490.00,120490.00,121393.00,35163,4236789870.00,20,122948.00
قنقش,20211201,116538.00,120200.00,116538.00,116540.00,158582,18481145570.00,165,121393.00
قنقش,20211204,114210.00,118870.00,114210.00,115455.00,123096,14212042129.00,205,116540.00
قنقش,20211205,113146.00,113146.00,113146.00,113146.00,250743,28370567478.00,79,115455.00
قنقش,20211206,110884.00,115408.00,110884.00,112974.00,628913,71050531351.00,265,113146.00
قنقش,20211207,115233.00,115233.00,115200.00,115233.00,335855,38701576905.00,180,112974.00
قنقش,20211208,117537.00,117537.00,117537.00,117537.00,64554,7587483498.00,42,115233.00
قنقش,20211211,122238.00,122238.00,112836.00,120762.00,865371,104503542585.00,631,117537.00
قنقش,20211212,118347.00,123177.00,118347.00,119767.00,381808,45727914214.00,343,120762.00
قنقش,20211213,119502.00,122162.00,119502.00,122145.00,175261,21407189898.00,225,119767.00
قنقش,20211214,119703.00,124582.00,119703.00,120419.00,77074,9281137460.00,174,122145.00
قنقش,20211215,118116.00,122827.00,118011.00,121945.00,161091,19644166695.00,202,120419.00
قنقش,20211218,124383.00,124383.00,122800.00,124311.00,136845,17011276267.00,152,121945.00
قنقش,20211219,126797.00,126797.00,124480.00,126696.00,218049,27625972442.00,259,124311.00
قنقش,20211220,129229.00,129229.00,129003.00,129227.00,137312,17744353167.00,200,126696.00
قنقش,20211221,131811.00,131811.00,126643.00,128363.00,507222,65108293653.00,452,129227.00
قنقش,20211222,126020.00,130930.00,126020.00,130926.00,176017,23045199542.00,184,128363.00
قنقش,20211225,130930.00,133544.00,130930.00,133270.00,156718,20885851112.00,220,130926.00
قنقش,20211226,135935.00,135935.00,132044.00,133991.00,284542,38125975630.00,274,133270.00
قنقش,20211227,133010.00,136000.00,131312.00,134665.00,325530,43837627779.00,262,133991.00
قنقش,20211228,134000.00,137350.00,131972.00,135157.00,248804,33627727674.00,240,134665.00
قنقش,20211229,132454.00,132454.00,132454.00,132454.00,64066,8485797964.00,25,135157.00
قنقش,20220101,129805.00,129805.00,129805.00,131760.00,14565,1890609825.00,24,132454.00
قنقش,20220102,126490.00,126490.00,126490.00,126490.00,55916,7072814840.00,25,131760.00
قنقش,20220103,123961.00,129019.00,123961.00,124942.00,706443,88264505591.00,450,126490.00
قنقش,20220104,127440.00,127440.00,127440.00,127440.00,505535,64425380400.00,228,124942.00
قنقش,20220105,129988.00,129988.00,129988.00,129988.00,109867,14281391596.00,90,127440.00
قنقش,20220108,132550.00,132550.00,132550.00,132550.00,604351,80106725050.00,99,129988.00
قنقش,20220109,135200.00,135200.00,130000.00,135050.00,749894,101267973500.00,404,132550.00
قنقش,20220110,137500.00,137750.00,132500.00,137350.00,428634,58875207150.00,353,135050.00
قنقش,20220111,137450.00,140050.00,134950.00,138900.00,102745,14273555450.00,187,137350.00
قنقش,20220112,141600.00,141600.00,136850.00,140100.00,111252,15583954250.00,208,138900.00
قنقش,20220115,137400.00,141450.00,137300.00,137750.00,164157,22616314350.00,217,140100.00
قنقش,20220116,135150.00,140500.00,135100.00,139800.00,144528,20205844750.00,204,137750.00
قنقش,20220117,138100.00,140000.00,137050.00,137900.00,64056,8834031950.00,143,139800.00
قنقش,20220118,135150.00,140650.00,135150.00,138450.00,275614,38160023500.00,210,137900.00
قنقش,20220119,141200.00,141200.00,135700.00,139350.00,84745,11811063850.00,191,138450.00
قنقش,20220122,141950.00,141950.00,136600.00,137600.00,37352,5108815850.00,109,139350.00
قنقش,20220123,134850.00,134850.00,134850.00,137000.00,12612,1700728200.00,41,137600.00
قنقش,20220124,134300.00,134300.00,134300.00,135450.00,31487,4228704100.00,36,137000.00
قنقش,20220125,132750.00,132750.00,132750.00,135450.00,41,5442750.00,1,135450.00
قنقش,20220126,132750.00,132750.00,132750.00,135300.00,3473,461040750.00,12,135450.00
قنقش,20220129,132600.00,132600.00,132600.00,135200.00,2029,269045400.00,14,135300.00
قنقش,20220130,129800.00,129800.00,129800.00,134200.00,10319,1339406200.00,18,135200.00
قنقش,20220131,131550.00,131550.00,131550.00,134000.00,4484,589870200.00,16,134200.00
قنقش,20220201,131350.00,131350.00,131350.00,134000.00,370,48599500.00,2,134000.00
قنقش,20220202,131350.00,131350.00,131350.00,132850.00,23915,3141235250.00,13,134000.00
قنقش,20220205,127550.00,127550.00,127550.00,132750.00,1265,161350750.00,8,132850.00
قنقش,20220206,130100.00,130100.00,130100.00,132450.00,6099,793479900.00,4,132750.00
قنقش,20220207,129850.00,129850.00,129850.00,132450.00,100,12985000.00,1,132450.00
قنقش,20220208,129850.00,129850.00,129850.00,132450.00,420,54537000.00,2,132450.00
قنقش,20220209,127200.00,127200.00,127200.00,127200.00,267822,34066958400.00,163,132450.00
قنقش,20220212,124700.00,129600.00,124700.00,126250.00,62299,7866376950.00,171,127200.00
قنقش,20220213,123750.00,128750.00,123750.00,127700.00,621343,79348723100.00,395,126250.00
قنقش,20220214,125550.00,130250.00,125550.00,128200.00,81498,10446409450.00,159,127700.00
قنقش,20220216,127000.00,130000.00,125650.00,126450.00,75480,9542662850.00,152,128200.00
قنقش,20220219,124000.00,124000.00,123950.00,125750.00,15690,1944795750.00,27,126450.00
قنقش,20220220,123250.00,123250.00,123250.00,125300.00,9471,1167300750.00,20,125750.00
قنقش,20220221,122800.00,122800.00,122800.00,123800.00,32862,4035453600.00,17,125300.00
قنقش,20220222,118850.00,122800.00,118850.00,120350.00,176229,21212759650.00,159,123800.00
قنقش,20220223,117950.00,122750.00,117950.00,121300.00,355638,43144427500.00,237,120350.00
قنقش,20220226,123700.00,123700.00,118900.00,119150.00,73959,8811629550.00,117,121300.00
قنقش,20220227,119150.00,120000.00,116800.00,118650.00,15832,1859965000.00,38,119150.00
قنقش,20220228,121000.00,121000.00,116300.00,117900.00,231923,27339517400.00,251,118650.00
قنقش,20220302,115550.00,119950.00,115550.00,116450.00,53754,6255757900.00,137,117900.00
قنقش,20220305,114150.00,118750.00,114150.00,115950.00,20950,2411336850.00,42,116450.00
قنقش,20220306,113650.00,113650.00,113650.00,115500.00,10793,1226624450.00,7,115950.00
قنقش,20220307,113200.00,113200.00,113200.00,115400.00,1961,221985200.00,9,115500.00
قنقش,20220308,110800.00,110800.00,110800.00,114450.00,11736,1300348800.00,11,115400.00
قنقش,20220309,112200.00,112200.00,112200.00,114400.00,1738,195003600.00,4,114450.00
قنقش,20220312,112150.00,112150.00,112150.00,114300.00,2828,317160200.00,9,114400.00
قنقش,20220313,112050.00,112050.00,112050.00,114300.00,475,53223750.00,2,114300.00
قنقش,20220314,109750.00,109750.00,109750.00,113950.00,4232,464462000.00,7,114300.00
قنقش,20220315,111700.00,111700.00,111700.00,113950.00,48,5361600.00,1,113950.00
قنقش,20220316,111700.00,111700.00,111700.00,111850.00,52248,5836101600.00,14,113950.00
قنقش,20220319,109650.00,109650.00,109650.00,111650.00,5263,577087950.00,5,111850.00
قنقش,20220326,107200.00,107200.00,107200.00,111300.00,4633,496657600.00,20,111650.00
قنقش,20220327,109100.00,109100.00,109100.00,111300.00,300,32730000.00,2,111300.00
قنقش,20220328,0.00,0.00,0.00,111300.00,0,0.00,0,111300.00
قنقش,20220329,109100.00,109100.00,109100.00,110550.00,19584,2136614400.00,15,111300.00
قنقش,20220330,108350.00,108350.00,108350.00,110500.00,1413,153098550.00,6,110550.00
قنقش,20220403,106100.00,114900.00,106100.00,107900.00,425924,45958172250.00,373,110500.00
قنقش,20220404,109850.00,110050.00,108300.00,110050.00,217265,23908894850.00,272,107900.00
قنقش,20220405,110050.00,112250.00,107850.00,109300.00,332340,36326474200.00,316,110050.00
قنقش,20220406,107150.00,111450.00,107150.00,109800.00,296422,32551647150.00,265,109300.00
قنقش,20220409,111500.00,111950.00,110050.00,111650.00,133078,14857602650.00,156,109800.00
قنقش,20220410,113000.00,113850.00,113000.00,113800.00,99254,11296368050.00,115,111650.00
قنقش,20220411,114800.00,116050.00,114800.00,115950.00,112873,13085413450.00,153,113800.00
قنقش,20220412,118200.00,118200.00,113650.00,114050.00,189769,21642852700.00,164,115950.00
قنقش,20220413,116300.00,116300.00,111800.00,112000.00,267618,29968622300.00,171,114050.00
قنقش,20220416,109800.00,114200.00,109800.00,114050.00,108853,12413527050.00,101,112000.00
قنقش,20220417,116300.00,116300.00,116000.00,116300.00,57462,6682800600.00,73,114050.00
قنقش,20220418,118250.00,118600.00,114000.00,118550.00,72394,8582671500.00,106,116300.00
قنقش,20220419,118600.00,120900.00,118600.00,120700.00,59674,7202077750.00,121,118550.00
قنقش,20220420,120000.00,123050.00,120000.00,121150.00,29912,3635353850.00,91,120700.00
قنقش,20220424,123350.00,123350.00,118750.00,120050.00,35852,4281304150.00,127,121150.00
قنقش,20220425,117650.00,120900.00,117650.00,119250.00,63598,7584325750.00,85,120050.00
قنقش,20220426,118100.00,121000.00,117000.00,119750.00,114096,13664320400.00,146,119250.00
قنقش,20220427,121100.00,122000.00,117450.00,120050.00,67693,8127859800.00,119,119750.00
قنقش,20220430,122200.00,122200.00,117650.00,119450.00,68946,8234663650.00,112,120050.00
قنقش,20220501,119000.00,121800.00,118000.00,121000.00,160522,19426483350.00,214,119450.00
قنقش,20220502,123000.00,123300.00,118950.00,121800.00,56154,6838438150.00,117,121000.00
قنقش,20220507,122000.00,123950.00,119400.00,120950.00,88151,10663213450.00,130,121800.00
قنقش,20220508,118600.00,123000.00,118550.00,119950.00,45507,5448880650.00,87,120950.00
قنقش,20220509,122100.00,122100.00,117600.00,118900.00,69917,8312372700.00,58,119950.00
قنقش,20220510,116650.00,121200.00,116550.00,118500.00,113718,13473662650.00,120,118900.00
قنقش,20220511,116200.00,118400.00,116150.00,116500.00,72517,8447638950.00,114,118500.00
قنقش,20220514,118600.00,118600.00,114300.00,116150.00,99941,11609935200.00,187,116500.00
قنقش,20220515,117450.00,118450.00,114000.00,117300.00,148739,17445708800.00,269,116150.00
قنقش,20220516,115300.00,119600.00,115300.00,119350.00,152698,18225078650.00,166,117300.00
قنقش,20220517,121700.00,121700.00,118050.00,121550.00,219111,26634711350.00,213,119350.00
قنقش,20220518,123900.00,123950.00,119750.00,122950.00,174540,21458608300.00,157,121550.00
قنقش,20220521,120900.00,123650.00,120650.00,121900.00,31872,3860205350.00,100,122950.00
قنقش,20220522,120650.00,122950.00,119500.00,122100.00,96232,11750117350.00,161,121900.00
قنقش,20220523,120200.00,122100.00,119700.00,120700.00,49895,6015531400.00,50,122100.00
قنقش,20220524,118300.00,120000.00,118300.00,120050.00,16082,1904847100.00,38,120700.00
قنقش,20220525,118500.00,122450.00,117650.00,120900.00,189310,22884532450.00,156,120050.00
قنقش,20220528,122350.00,122350.00,118500.00,120600.00,11253,1343003150.00,39,120900.00
قنقش,20220529,118200.00,118200.00,118200.00,120600.00,136,16075200.00,2,120600.00
قنقش,20220530,118200.00,118200.00,118200.00,120550.00,775,91605000.00,4,120600.00
قنقش,20220531,118150.00,118150.00,118150.00,120400.00,2968,350669200.00,11,120550.00
قنقش,20220601,118000.00,118000.00,118000.00,119500.00,20650,2436700000.00,9,120400.00
قنقش,20220606,117150.00,117150.00,117150.00,119350.00,3081,360939150.00,5,119500.00
قنقش,20220607,117000.00,117000.00,117000.00,119300.00,614,71838000.00,3,119350.00
قنقش,20220608,116950.00,116950.00,116950.00,119300.00,441,51574950.00,4,119300.00
قنقش,20220611,0.00,0.00,0.00,119300.00,0,0.00,0,119300.00
قنقش,20220612,116950.00,116950.00,116950.00,119250.00,1262,147590900.00,1,119300.00
قنقش,20220613,114500.00,114500.00,114500.00,117800.00,17213,1970888500.00,30,119250.00
قنقش,20220614,115450.00,115450.00,115450.00,117700.00,2000,230900000.00,1,117800.00
قنقش,20220615,115350.00,115350.00,115350.00,117700.00,52,5998200.00,1,117700.00
قنقش,20220618,115350.00,115350.00,115350.00,117700.00,344,39680400.00,3,117700.00
قنقش,20220619,115350.00,115350.00,115350.00,117700.00,210,24223500.00,4,117700.00
قنقش,20220620,115350.00,117200.00,115350.00,115400.00,186550,21525428100.00,118,117700.00
قنقش,20220621,113150.00,115950.00,113100.00,113700.00,172464,19607899550.00,209,115400.00
قنقش,20220622,114700.00,115950.00,111450.00,115050.00,225060,25891723150.00,123,113700.00
قنقش,20220625,112800.00,117350.00,112800.00,117350.00,87822,10304231450.00,100,115050.00
قنقش,20220626,116000.00,119650.00,116000.00,118850.00,101521,12066120150.00,125,117350.00
قنقش,20220627,116600.00,120950.00,116600.00,118100.00,81413,9614582500.00,130,118850.00
قنقش,20220628,116800.00,120000.00,116800.00,119050.00,123406,14690343600.00,125,118100.00
قنقش,20220629,117050.00,120800.00,116850.00,118800.00,20896,2473371350.00,56,119050.00
